{
    "KPlugin": {
        "Authors": [
            {
                "Email": "joris.guisson@gmail.com, ivasic@gmail.com",
                "Name": "Joris Guisson, Ivan Vasic",
                "Name[ca@valencia]": "Joris Guisson, Ivan Vasic",
                "Name[ca]": "Joris Guisson, Ivan Vasic",
                "Name[cs]": "Joris Guisson, Ivan Vasic",
                "Name[de]": "Joris Guisson, Ivan Vasic",
                "Name[en_GB]": "Joris Guisson, Ivan Vasic",
                "Name[es]": "Joris Guisson, Ivan Vasic",
                "Name[eu]": "Joris Guisson, Ivan Vasic",
                "Name[fi]": "Joris Guisson, Ivan Vasic",
                "Name[fr]": "Joris Guisson, Ivan Vasic",
                "Name[hu]": "Joris Guisson, Ivan Vasic",
                "Name[ia]": "Joris Guisson, Ivan Vasic",
                "Name[it]": "Joris Guisson, Ivan Vasic",
                "Name[ka]": "Joris Guisson, Ivan Vasic",
                "Name[ko]": "Joris Guisson, Ivan Vasic",
                "Name[nl]": "Joris Guisson, Ivan Vasic",
                "Name[pl]": "Joris Guisson, Ivan Vasic",
                "Name[pt]": "Joris Guisson, Ivan Vasic",
                "Name[pt_BR]": "Joris Guisson, Ivan Vasic",
                "Name[ru]": "Joris Guisson, Ivan Vasic",
                "Name[sl]": "Joris Guisson, Ivan Vasic",
                "Name[sv]": "Joris Guisson, Ivan Vasic",
                "Name[tr]": "Joris Guisson, Ivan Vasic",
                "Name[uk]": "Joris Guisson, Ivan Vasic",
                "Name[x-test]": "xxJoris Guisson, Ivan Vasicxx",
                "Name[zh_CN]": "Joris Guisson、Ivan Vasic"
            }
        ],
        "Description": "Scan folders for torrent files and load them",
        "Description[ca@valencia]": "Explora les carpetes buscant fitxers torrent i els carrega",
        "Description[ca]": "Explora les carpetes cercant fitxers torrent i els carrega",
        "Description[cs]": "Vyhledávat ve složkách a načítat torrenty",
        "Description[de]": "Ordner nach Torrent-Dateien durchsuchen und diese laden",
        "Description[en_GB]": "Scan folders for torrent files and load them",
        "Description[es]": "Explora carpetas en búsqueda de archivos torrent y los carga",
        "Description[eu]": "Aztertu karpetak torrent-fitxategien bila eta haiek zamatu",
        "Description[fi]": "Etsi kansiosta torrenttitiedostoja ja lataa ne",
        "Description[fr]": "Analyse des dossiers pour rechercher et charger des fichiers « torrent »",
        "Description[hu]": "Mappák figyelése és a torrentfájlok betöltése",
        "Description[it]": "Analizza le cartelle alla ricerca di torrent e caricali",
        "Description[ko]": "폴더에서 토렌트 파일을 검색하고 불러오기",
        "Description[nl]": "Scan mappen op torrentbestanden en laad deze",
        "Description[pl]": "Przeszukiwanie katalogów w poszukiwaniu torrentów i ich wczytywanie",
        "Description[pt]": "Pesquisar as pastas por ficheiros de torrentes e carregá-los",
        "Description[pt_BR]": "Procura na pastas por arquivos torrent e os carrega",
        "Description[ru]": "Ищет торренты в выбранных папках и загружает их",
        "Description[sl]": "Preišči mape za datotekami torrent in jih naloži",
        "Description[sv]": "Sök igenom kataloger efter dataflödesfiler och ladda dem",
        "Description[tr]": "Klasörleri torrent dosyaları için tara ve bulunan dosyaları yükle",
        "Description[uk]": "Знайти у теках файли торентів і завантажити їх",
        "Description[x-test]": "xxScan folders for torrent files and load themxx",
        "Description[zh_CN]": "扫描文件夹以加载其中的种子文件",
        "EnabledByDefault": false,
        "Icon": "folder-open",
        "Id": "ScanFolderPlugin",
        "License": "GPL",
        "Name": "Scan Folder",
        "Name[bg]": "Претърсване на директория",
        "Name[bs]": "Pretraga direktorija",
        "Name[ca@valencia]": "Explora les carpetes",
        "Name[ca]": "Explora les carpetes",
        "Name[cs]": "Procházení složek",
        "Name[da]": "Scan mappe",
        "Name[de]": "Ordner durchsuchen",
        "Name[el]": "Σάρωση φακέλου",
        "Name[en_GB]": "Scan Folder",
        "Name[es]": "Exploración de carpeta",
        "Name[et]": "Kataloogi uurimine",
        "Name[eu]": "Aztertu karpeta",
        "Name[fi]": "Etsi kansiosta",
        "Name[fr]": "Analyser un dossier",
        "Name[ga]": "Scan Fillteán",
        "Name[gl]": "Exame de cartafoles",
        "Name[hr]": "Pretraži direktorij",
        "Name[hu]": "Mappafigyelő",
        "Name[ia]": "Scande Dossier",
        "Name[is]": "Leita í möppu",
        "Name[it]": "Scansione cartella",
        "Name[ja]": "スキャンフォルダ",
        "Name[ka]": "საქაღალდის სკანირება",
        "Name[kk]": "Қапшықты зерттеу",
        "Name[km]": "វិភាគ​ថត",
        "Name[ko]": "폴더 검색",
        "Name[lt]": "Skenuoti aplanką",
        "Name[lv]": "Mapes skenēšana",
        "Name[nb]": "Mappeundersøker",
        "Name[nds]": "Ornern dörkieken",
        "Name[nl]": "Scanner-map",
        "Name[nn]": "Mappesøk",
        "Name[pl]": "Przeszukiwanie katalogów",
        "Name[pt]": "Sondagem de Pastas",
        "Name[pt_BR]": "Examinar pasta",
        "Name[ro]": "Citește dosar",
        "Name[ru]": "Проверка папок",
        "Name[si]": "බහලුම පරිලෝකනය",
        "Name[sk]": "Prehľadať priečinok",
        "Name[sl]": "Preišči mapo",
        "Name[sq]": "Skano Dosjen",
        "Name[sr@ijekavian]": "Претрага фасцикле",
        "Name[sr@ijekavianlatin]": "Pretraga fascikle",
        "Name[sr@latin]": "Pretraga fascikle",
        "Name[sr]": "Претрага фасцикле",
        "Name[sv]": "Katalogsökning",
        "Name[tr]": "Dizin Tara",
        "Name[ug]": "قىسقۇچ تەكشۈر",
        "Name[uk]": "Сканувати теку",
        "Name[x-test]": "xxScan Folderxx",
        "Name[zh_CN]": "扫描文件夹",
        "Name[zh_TW]": "掃描資料夾",
        "Version": "0.1",
        "Website": "http://kde.org/applications/internet/ktorrent/"
    }
}
