{
    "KPlugin": {
        "Authors": [
            {
                "Email": "joris.guisson@gmail.com, ivasic@gmail.com",
                "Name": "Joris Guisson, Ivan Vasic",
                "Name[ca@valencia]": "Joris Guisson, Ivan Vasic",
                "Name[ca]": "Joris Guisson, Ivan Vasic",
                "Name[cs]": "Joris Guisson, Ivan Vasic",
                "Name[de]": "Joris Guisson, Ivan Vasic",
                "Name[en_GB]": "Joris Guisson, Ivan Vasic",
                "Name[es]": "Joris Guisson, Ivan Vasic",
                "Name[eu]": "Joris Guisson, Ivan Vasic",
                "Name[fi]": "Joris Guisson, Ivan Vasic",
                "Name[fr]": "Joris Guisson, Ivan Vasic",
                "Name[hu]": "Joris Guisson, Ivan Vasic",
                "Name[ia]": "Joris Guisson, Ivan Vasic",
                "Name[it]": "Joris Guisson, Ivan Vasic",
                "Name[ka]": "Joris Guisson, Ivan Vasic",
                "Name[ko]": "Joris Guisson, Ivan Vasic",
                "Name[nl]": "Joris Guisson, Ivan Vasic",
                "Name[pl]": "Joris Guisson, Ivan Vasic",
                "Name[pt]": "Joris Guisson, Ivan Vasic",
                "Name[pt_BR]": "Joris Guisson, Ivan Vasic",
                "Name[ru]": "Joris Guisson, Ivan Vasic",
                "Name[sl]": "Joris Guisson, Ivan Vasic",
                "Name[sv]": "Joris Guisson, Ivan Vasic",
                "Name[tr]": "Joris Guisson, Ivan Vasic",
                "Name[uk]": "Joris Guisson, Ivan Vasic",
                "Name[x-test]": "xxJoris Guisson, Ivan Vasicxx",
                "Name[zh_CN]": "Joris Guisson、Ivan Vasic"
            }
        ],
        "Description": "Forward ports using UPnP",
        "Description[ca@valencia]": "Redirigix els ports utilitzant UPnP",
        "Description[ca]": "Redirigeix els ports usant UPnP",
        "Description[cs]": "Předávání portů pomocí UPnP",
        "Description[de]": "Port-Weiterleitung unter Verwendung von UPnP",
        "Description[en_GB]": "Forward ports using UPnP",
        "Description[es]": "Reenvío de puertos usando UPnP",
        "Description[eu]": "Birbidali atakak UPnP erabiliz",
        "Description[fi]": "Portinohjaus UPnP:llä",
        "Description[fr]": "Rediriger des ports en utilisant « UPnP »",
        "Description[hu]": "Portátirányítás UPnP használatával",
        "Description[it]": "Inoltra le porte utilizzando UPnP",
        "Description[ka]": "პორტების UPnP-ით გადმომისამართება",
        "Description[ko]": "UPnP를 사용한 포트 포워딩",
        "Description[nl]": "Forward poorten met behulp van UPnP",
        "Description[pl]": "Przekierowywanie portów z wykorzystaniem UPnP",
        "Description[pt]": "Encaminhamento de portos com o UPnP",
        "Description[pt_BR]": "Redireciona portas usando o UPnP",
        "Description[ru]": "Модуль перенаправления портов с помощью UPnP",
        "Description[sl]": "Posreduj vrata s pomočjo UPnP",
        "Description[sv]": "Vidarebefordra portar genom att använda UPnP",
        "Description[tr]": "UPnP kullanarak kapıları yönlendirir",
        "Description[uk]": "Переспрямування портів за допомогою UPnP",
        "Description[x-test]": "xxForward ports using UPnPxx",
        "Description[zh_CN]": "使用 UPnP 转发端口",
        "EnabledByDefault": false,
        "Icon": "kt-upnp",
        "Id": "UPnPPlugin",
        "License": "GPL",
        "Name": "UPnP",
        "Name[bg]": "UPnP",
        "Name[bs]": "UPnP",
        "Name[ca@valencia]": "UPnP",
        "Name[ca]": "UPnP",
        "Name[cs]": "UPnP",
        "Name[da]": "UPnP",
        "Name[de]": "UPnP",
        "Name[el]": "UPnP",
        "Name[en_GB]": "UPnP",
        "Name[eo]": "UPnP",
        "Name[es]": "UPnP",
        "Name[et]": "UPnP",
        "Name[eu]": "UPnP",
        "Name[fi]": "UPnP",
        "Name[fr]": "UPnP",
        "Name[ga]": "UPnP",
        "Name[gl]": "UPnP",
        "Name[hr]": "UPnP",
        "Name[hu]": "UPnP",
        "Name[ia]": "UPnP",
        "Name[is]": "UPnP",
        "Name[it]": "UPnP",
        "Name[ja]": "UPnP",
        "Name[ka]": "UPnP",
        "Name[kk]": "UPnP",
        "Name[km]": "UPnP",
        "Name[ko]": "UPnP",
        "Name[lt]": "UPnP",
        "Name[lv]": "UPnP",
        "Name[mr]": "UPnP",
        "Name[nb]": "UPnP",
        "Name[nds]": "UPnP",
        "Name[nl]": "UPnP",
        "Name[nn]": "UPnP",
        "Name[pl]": "UPnP",
        "Name[pt]": "UPnP",
        "Name[pt_BR]": "UPnP",
        "Name[ro]": "UPnP",
        "Name[ru]": "UPnP",
        "Name[si]": "UPnP",
        "Name[sk]": "UPnP",
        "Name[sl]": "UPnP",
        "Name[sq]": "UPnP",
        "Name[sr@ijekavian]": "УПнП",
        "Name[sr@ijekavianlatin]": "UPnP",
        "Name[sr@latin]": "UPnP",
        "Name[sr]": "УПнП",
        "Name[sv]": "UPnP",
        "Name[tr]": "UPnP",
        "Name[ug]": "UPnP",
        "Name[uk]": "UPnP",
        "Name[x-test]": "xxUPnPxx",
        "Name[zh_CN]": "UPnP",
        "Name[zh_TW]": "UPnP",
        "Version": "0.1",
        "Website": "http://kde.org/applications/internet/ktorrent/"
    }
}
