{
    "KPlugin": {
        "Authors": [
            {
                "Email": "joris.guisson@gmail.com, ivasic@gmail.com",
                "Name": "Joris Guisson, Ivan Vasic",
                "Name[ca@valencia]": "Joris Guisson, Ivan Vasic",
                "Name[ca]": "Joris Guisson, Ivan Vasic",
                "Name[cs]": "Joris Guisson, Ivan Vasic",
                "Name[de]": "Joris Guisson, Ivan Vasic",
                "Name[en_GB]": "Joris Guisson, Ivan Vasic",
                "Name[es]": "Joris Guisson, Ivan Vasic",
                "Name[eu]": "Joris Guisson, Ivan Vasic",
                "Name[fi]": "Joris Guisson, Ivan Vasic",
                "Name[fr]": "Joris Guisson, Ivan Vasic",
                "Name[hu]": "Joris Guisson, Ivan Vasic",
                "Name[ia]": "Joris Guisson, Ivan Vasic",
                "Name[it]": "Joris Guisson, Ivan Vasic",
                "Name[ka]": "Joris Guisson, Ivan Vasic",
                "Name[ko]": "Joris Guisson, Ivan Vasic",
                "Name[nl]": "Joris Guisson, Ivan Vasic",
                "Name[pl]": "Joris Guisson, Ivan Vasic",
                "Name[pt]": "Joris Guisson, Ivan Vasic",
                "Name[pt_BR]": "Joris Guisson, Ivan Vasic",
                "Name[ru]": "Joris Guisson, Ivan Vasic",
                "Name[sl]": "Joris Guisson, Ivan Vasic",
                "Name[sv]": "Joris Guisson, Ivan Vasic",
                "Name[tr]": "Joris Guisson, Ivan Vasic",
                "Name[uk]": "Joris Guisson, Ivan Vasic",
                "Name[x-test]": "xxJoris Guisson, Ivan Vasicxx",
                "Name[zh_CN]": "Joris Guisson、Ivan Vasic"
            }
        ],
        "Description": "Search for torrents",
        "Description[ca@valencia]": "Busca de torrent",
        "Description[ca]": "Cerca de torrents",
        "Description[cs]": "Hledat torrenty",
        "Description[de]": "Nach Torrents suchen",
        "Description[en_GB]": "Search for torrents",
        "Description[es]": "Buscar torrents",
        "Description[eu]": "Bilatu torrentak",
        "Description[fi]": "Etsi torrentteja",
        "Description[fr]": "Rechercher des « torrents »",
        "Description[hu]": "Torrentek keresése",
        "Description[it]": "Ricerca di torrent",
        "Description[ka]": "ტორენტების ძებნა",
        "Description[ko]": "토렌트 검색",
        "Description[nl]": "Zoeken naar torrents",
        "Description[pl]": "Wyszukiwanie torrentów",
        "Description[pt]": "Procurar por torrentes",
        "Description[pt_BR]": "Pesquisar por torrents",
        "Description[ru]": "Поиск торрентов",
        "Description[sl]": "Iskanje torrentov",
        "Description[sv]": "Sök efter dataflöden",
        "Description[tr]": "Torrentler ara",
        "Description[uk]": "Пошук торентів",
        "Description[x-test]": "xxSearch for torrentsxx",
        "Description[zh_CN]": "搜索种子",
        "EnabledByDefault": false,
        "Icon": "edit-find",
        "Id": "SearchPlugin",
        "License": "GPL",
        "Name": "Search",
        "Name[ar]": "البحث",
        "Name[bg]": "Търсене",
        "Name[bs]": "Traži",
        "Name[ca@valencia]": "Busca",
        "Name[ca]": "Cerca",
        "Name[cs]": "Hledat",
        "Name[da]": "Søg",
        "Name[de]": "Suche",
        "Name[el]": "Αναζήτηση",
        "Name[en_GB]": "Search",
        "Name[eo]": "Serĉo",
        "Name[es]": "Búsqueda",
        "Name[et]": "Otsimine",
        "Name[eu]": "Bilatu",
        "Name[fi]": "Etsi",
        "Name[fr]": "Recherche",
        "Name[ga]": "Cuardaigh",
        "Name[gl]": "Busca",
        "Name[hu]": "Keresés",
        "Name[ia]": "Cerca",
        "Name[is]": "Leita",
        "Name[it]": "Ricerca",
        "Name[ja]": "検索",
        "Name[ka]": "ძებნა",
        "Name[kk]": "Іздеу",
        "Name[km]": "ស្វែងរក",
        "Name[ko]": "검색",
        "Name[lt]": "Paieška",
        "Name[lv]": "Meklēšana",
        "Name[mr]": "शोधा",
        "Name[nb]": "Søk",
        "Name[nds]": "Söken",
        "Name[nl]": "Zoeken",
        "Name[nn]": "Søk",
        "Name[pl]": "Wyszukiwanie",
        "Name[pt]": "Pesquisa",
        "Name[pt_BR]": "Busca",
        "Name[ro]": "Caută",
        "Name[ru]": "Поиск",
        "Name[si]": "සොයන්න",
        "Name[sk]": "Hľadať",
        "Name[sl]": "Iskanje",
        "Name[sq]": "Kërko",
        "Name[sr@ijekavian]": "Претрага",
        "Name[sr@ijekavianlatin]": "Pretraga",
        "Name[sr@latin]": "Pretraga",
        "Name[sr]": "Претрага",
        "Name[sv]": "Sök",
        "Name[tr]": "Ara",
        "Name[ug]": "ئىزدە",
        "Name[uk]": "Пошук",
        "Name[x-test]": "xxSearchxx",
        "Name[zh_CN]": "查找",
        "Name[zh_TW]": "搜尋",
        "Version": "0.1",
        "Website": "http://kde.org/applications/internet/ktorrent/"
    }
}
